{
    "type": "FeatureCollection",
    "features": [
        {
            "type": "Feature",
            "properties": {
                "name": "ifac.edu.br",
                "initial": "I",
                "state": "AC",
                "gafam": true,
                "mx": "alt2.aspmx.l.google.com.",
                "provider": "Google"
            },
            "geometry": {
                "type": "Point",
                "coordinates": [
                    "-67.817631",
                    "-9.931204"
                ]
            }
        },
        {
            "type": "Feature",
            "properties": {
                "name": "ifal.edu.br",
                "initial": "I",
                "state": "AL",
                "gafam": true,
                "mx": "aspmx5.googlemail.com.",
                "provider": "Google"
            },
            "geometry": {
                "type": "Point",
                "coordinates": [
                    "-35.7353",
                    "-9.6658"
                ]
            }
        },
        {
            "type": "Feature",
            "properties": {
                "name": "ifap.edu.br",
                "initial": "I",
                "state": "AP",
                "gafam": true,
                "mx": "aspmx2.googlemail.com.",
                "provider": "Google"
            },
            "geometry": {
                "type": "Point",
                "coordinates": [
                    "-46.6361",
                    "-23.5475"
                ]
            }
        },
        {
            "type": "Feature",
            "properties": {
                "name": "ifam.edu.br",
                "initial": "I",
                "state": "AM",
                "gafam": true,
                "mx": "alt1.aspmx.l.google.com.",
                "provider": "Google"
            },
            "geometry": {
                "type": "Point",
                "coordinates": [
                    "-60.012812",
                    "-3.134275"
                ]
            }
        },
        {
            "type": "Feature",
            "properties": {
                "name": "ifb.edu.br",
                "initial": "I",
                "state": "DF",
                "gafam": true,
                "mx": "aspmx5.googlemail.com.",
                "provider": "Google"
            },
            "geometry": {
                "type": "Point",
                "coordinates": [
                    "-47.879316",
                    "-15.754002"
                ]
            }
        },
        {
            "type": "Feature",
            "properties": {
                "name": "ifce.edu.br",
                "initial": "I",
                "state": "CE",
                "gafam": true,
                "mx": "aspmx3.googlemail.com.",
                "provider": "Google"
            },
            "geometry": {
                "type": "Point",
                "coordinates": [
                    "-39.0622",
                    "-6.6067"
                ]
            }
        },
        {
            "type": "Feature",
            "properties": {
                "name": "ifg.edu.br",
                "initial": "I",
                "state": "GO",
                "gafam": true,
                "mx": "alt2.aspmx.l.google.com.",
                "provider": "Google"
            },
            "geometry": {
                "type": "Point",
                "coordinates": [
                    "-49.4961",
                    "-16.3578"
                ]
            }
        },
        {
            "type": "Feature",
            "properties": {
                "name": "ifgoiano.edu.br",
                "initial": "I",
                "state": "GO",
                "gafam": true,
                "mx": "aspmx3.googlemail.com.",
                "provider": "Google"
            },
            "geometry": {
                "type": "Point",
                "coordinates": [
                    "-46.6361",
                    "-23.5475"
                ]
            }
        },
        {
            "type": "Feature",
            "properties": {
                "name": "ifma.edu.br",
                "initial": "I",
                "state": "MA",
                "gafam": true,
                "mx": "aspmx.l.google.com.",
                "provider": "Google"
            },
            "geometry": {
                "type": "Point",
                "coordinates": [
                    "-49.595137",
                    "-15.351461"
                ]
            }
        },
        {
            "type": "Feature",
            "properties": {
                "name": "ifmg.edu.br",
                "initial": "I",
                "state": "MG",
                "gafam": true,
                "mx": "aspmx3.googlemail.com.",
                "provider": "Google"
            },
            "geometry": {
                "type": "Point",
                "coordinates": [
                    "-43.1792",
                    "-21.2747"
                ]
            }
        },
        {
            "type": "Feature",
            "properties": {
                "name": "ifnmg.edu.br",
                "initial": "I",
                "state": "MG",
                "gafam": true,
                "mx": "alt2.aspmx.l.google.com.",
                "provider": "Google"
            },
            "geometry": {
                "type": "Point",
                "coordinates": [
                    "-45.4264",
                    "-20.4644"
                ]
            }
        },
        {
            "type": "Feature",
            "properties": {
                "name": "ifsudestemg.edu.br",
                "initial": "I",
                "state": "MG",
                "gafam": true,
                "mx": "aspmx2.googlemail.com.",
                "provider": "Google"
            },
            "geometry": {
                "type": "Point",
                "coordinates": [
                    "-43.355931",
                    "-21.783435"
                ]
            }
        },
        {
            "type": "Feature",
            "properties": {
                "name": "ifsuldeminas.edu.br",
                "initial": "I",
                "state": "MG",
                "gafam": true,
                "mx": "aspmx2.googlemail.com.",
                "provider": "Google"
            },
            "geometry": {
                "type": "Point",
                "coordinates": [
                    "-43.355931",
                    "-21.783435"
                ]
            }
        },
        {
            "type": "Feature",
            "properties": {
                "name": "iftm.edu.br",
                "initial": "I",
                "state": "MG",
                "gafam": true,
                "mx": "alt4.aspmx.l.google.com.",
                "provider": "Google"
            },
            "geometry": {
                "type": "Point",
                "coordinates": [
                    "-47.969865",
                    "-19.665902"
                ]
            }
        },
        {
            "type": "Feature",
            "properties": {
                "name": "ifmt.edu.br",
                "initial": "I",
                "state": "MT",
                "gafam": true,
                "mx": "aspmx5.googlemail.com.",
                "provider": "Google"
            },
            "geometry": {
                "type": "Point",
                "coordinates": [
                    "-56.1325",
                    "-15.6467"
                ]
            }
        },
        {
            "type": "Feature",
            "properties": {
                "name": "ifms.edu.br",
                "initial": "I",
                "state": "MS",
                "gafam": true,
                "mx": "alt3.aspmx.l.google.com.",
                "provider": "Google"
            },
            "geometry": {
                "type": "Point",
                "coordinates": [
                    "-54.6464",
                    "-20.4428"
                ]
            }
        },
        {
            "type": "Feature",
            "properties": {
                "name": "ifpb.edu.br",
                "initial": "I",
                "state": "PB",
                "gafam": true,
                "mx": "alt2.aspmx.l.google.com.",
                "provider": "Google"
            },
            "geometry": {
                "type": "Point",
                "coordinates": [
                    "-34.8631",
                    "-7.1150"
                ]
            }
        },
        {
            "type": "Feature",
            "properties": {
                "name": "ifpe.edu.br",
                "initial": "I",
                "state": "PE",
                "gafam": true,
                "mx": "alt1.aspmx.l.google.com.",
                "provider": "Google"
            },
            "geometry": {
                "type": "Point",
                "coordinates": [
                    "-34.8811",
                    "-8.0539"
                ]
            }
        },
        {
            "type": "Feature",
            "properties": {
                "name": "ifsertao-pe.edu.br",
                "initial": "I",
                "state": "PE",
                "gafam": true,
                "mx": "aspmx.l.google.com.",
                "provider": "Google"
            },
            "geometry": {
                "type": "Point",
                "coordinates": [
                    "-34.8811",
                    "-8.0539"
                ]
            }
        },
        {
            "type": "Feature",
            "properties": {
                "name": "ifpi.edu.br",
                "initial": "I",
                "state": "PI",
                "gafam": true,
                "mx": "alt4.aspmx.l.google.com.",
                "provider": "Google"
            },
            "geometry": {
                "type": "Point",
                "coordinates": [
                    "-42.811073",
                    "-5.089141"
                ]
            }
        },
        {
            "type": "Feature",
            "properties": {
                "name": "ifpr.edu.br",
                "initial": "I",
                "state": "PR",
                "gafam": true,
                "mx": "aspmx.l.google.com.",
                "provider": "Google"
            },
            "geometry": {
                "type": "Point",
                "coordinates": [
                    "-52.453425",
                    "-23.053817"
                ]
            }
        },
        {
            "type": "Feature",
            "properties": {
                "name": "ifrj.edu.br",
                "initial": "I",
                "state": "RJ",
                "gafam": true,
                "mx": "aspmx2.googlemail.com.",
                "provider": "Google"
            },
            "geometry": {
                "type": "Point",
                "coordinates": [
                    "-43.1822",
                    "-22.9064"
                ]
            }
        },
        {
            "type": "Feature",
            "properties": {
                "name": "ifrs.edu.br",
                "initial": "I",
                "state": "RS",
                "gafam": true,
                "mx": "aspmx.l.google.com.",
                "provider": "Google"
            },
            "geometry": {
                "type": "Point",
                "coordinates": [
                    "-51.522628",
                    "-29.163775"
                ]
            }
        },
        {
            "type": "Feature",
            "properties": {
                "name": "iffarroupilha.edu.br",
                "initial": "I",
                "state": "RS",
                "gafam": true,
                "mx": "alt1.aspmx.l.google.com.",
                "provider": "Google"
            },
            "geometry": {
                "type": "Point",
                "coordinates": [
                    "-51.2302",
                    "-30.0328"
                ]
            }
        },
        {
            "type": "Feature",
            "properties": {
                "name": "ifro.edu.br",
                "initial": "I",
                "state": "RO",
                "gafam": true,
                "mx": "aspmx2.googlemail.com.",
                "provider": "Google"
            },
            "geometry": {
                "type": "Point",
                "coordinates": [
                    "-63.9039",
                    "-8.7619"
                ]
            }
        },
        {
            "type": "Feature",
            "properties": {
                "name": "ifrr.edu.br",
                "initial": "I",
                "state": "RR",
                "gafam": true,
                "mx": "aspmx2.googlemail.com.",
                "provider": "Google"
            },
            "geometry": {
                "type": "Point",
                "coordinates": [
                    "-60.6733",
                    "2.8197"
                ]
            }
        },
        {
            "type": "Feature",
            "properties": {
                "name": "ifc.edu.br",
                "initial": "I",
                "state": "SC",
                "gafam": true,
                "mx": "alt1.aspmx.l.google.com.",
                "provider": "Google"
            },
            "geometry": {
                "type": "Point",
                "coordinates": [
                    "-49.066457",
                    "-26.912457"
                ]
            }
        },
        {
            "type": "Feature",
            "properties": {
                "name": "ifs.edu.br",
                "initial": "I",
                "state": "SE",
                "gafam": true,
                "mx": "ifs-edu-br.mail.protection.outlook.com.",
                "provider": "Microsoft"
            },
            "geometry": {
                "type": "Point",
                "coordinates": [
                    "-37.2064",
                    "-11.0147"
                ]
            }
        },
        {
            "type": "Feature",
            "properties": {
                "name": "ifto.edu.br",
                "initial": "I",
                "state": "TO",
                "gafam": true,
                "mx": "alt2.aspmx.l.google.com.",
                "provider": "Google"
            },
            "geometry": {
                "type": "Point",
                "coordinates": [
                    "-48.311545",
                    "-10.199186"
                ]
            }
        }
    ]
}