{
    "type": "FeatureCollection",
    "features": [
        {
            "type": "Feature",
            "properties": {
                "name": "seed.ap.gov.br",
                "initial": "S",
                "state": "AP",
                "gafam": false,
                "mx": "mail.ap.gov.br.",
                "provider": "Outro"
            },
            "geometry": {
                "type": "Point",
                "coordinates": [
                    "-51.0664",
                    "0.0389"
                ]
            }
        },
        {
            "type": "Feature",
            "properties": {
                "name": "crede01.seduc.ce.gov.br",
                "initial": "S",
                "state": "CE",
                "gafam": false,
                "mx": "mx2.etice.ce.gov.br.",
                "provider": "Outro"
            },
            "geometry": {
                "type": "Point",
                "coordinates": [
                    "-38.5431",
                    "-3.7172"
                ]
            }
        },
        {
            "type": "Feature",
            "properties": {
                "name": "educacao.ma.gov.br",
                "initial": "S",
                "state": "MA",
                "gafam": false,
                "mx": "mail3.seati.ma.gov.br.",
                "provider": "Outro"
            },
            "geometry": {
                "type": "Point",
                "coordinates": [
                    "-44.3028",
                    "-2.5297"
                ]
            }
        },
        {
            "type": "Feature",
            "properties": {
                "name": "sed.ms.gov.br",
                "initial": "S",
                "state": "MS",
                "gafam": false,
                "mx": "snwl.ms.gov.br.",
                "provider": "Outro"
            },
            "geometry": {
                "type": "Point",
                "coordinates": [
                    "-54.555817",
                    "-20.454219"
                ]
            }
        },
        {
            "type": "Feature",
            "properties": {
                "name": "sec.pb.gov.br",
                "initial": "S",
                "state": "PB",
                "gafam": false,
                "mx": "mx2.pb.gov.br.",
                "provider": "Outro"
            },
            "geometry": {
                "type": "Point",
                "coordinates": [
                    "-34.8631",
                    "-7.1150"
                ]
            }
        },
        {
            "type": "Feature",
            "properties": {
                "name": "educacao.pe.gov.br",
                "initial": "S",
                "state": "PE",
                "gafam": false,
                "mx": "as.educacao.pe.gov.br.",
                "provider": "Outro"
            },
            "geometry": {
                "type": "Point",
                "coordinates": [
                    "-34.8811",
                    "-8.0539"
                ]
            }
        },
        {
            "type": "Feature",
            "properties": {
                "name": "rn.gov.br",
                "initial": "S",
                "state": "RN",
                "gafam": false,
                "mx": "pratico.rn.gov.br.",
                "provider": "Outro"
            },
            "geometry": {
                "type": "Point",
                "coordinates": [
                    "-35.2094",
                    "-5.7950"
                ]
            }
        },
        {
            "type": "Feature",
            "properties": {
                "name": "seduc.rs.gov.br",
                "initial": "S",
                "state": "RS",
                "gafam": false,
                "mx": "mxsec.direto.procergs.rs.gov.br.",
                "provider": "Outro"
            },
            "geometry": {
                "type": "Point",
                "coordinates": [
                    "-51.2302",
                    "-30.0328"
                ]
            }
        },
        {
            "type": "Feature",
            "properties": {
                "name": "seduc.se.gov.br",
                "initial": "S",
                "state": "SE",
                "gafam": false,
                "mx": "mxs3.se.gov.br.",
                "provider": "Outro"
            },
            "geometry": {
                "type": "Point",
                "coordinates": [
                    "-37.0717",
                    "-10.9111"
                ]
            }
        },
        {
            "type": "Feature",
            "properties": {
                "name": "se.df.gov.br",
                "initial": "S",
                "state": "DF",
                "gafam": false,
                "mx": "smtp053.gdfnet.df.gov.br.",
                "provider": "Outro"
            },
            "geometry": {
                "type": "Point",
                "coordinates": [
                    "-47.879500",
                    "-15.788287"
                ]
            }
        }
    ]
}